Práctica_Estadística
…
20- Mostrar df con el nombre de: barrio, precio y número de entradas.

Ref. Crear un nuevo df con columnas = (“Barrio” y “Freq”) que contenga el número de entradas en c/barrio y hacer un merge con el df del punto anterior.

barrio_prectotal_nentradas <- airbnb_entire |> group_by(Barrio) |> summarize(freq = n(), Precio_total = sum(Precio)) |> select(Barrio, Precio_total, freq)
barrio_prectotal_nentradas

# A tibble: 119 × 3
   Barrio           Precio_total  freq
   <fct>                   <int> <int>
 1 Abrantes                  138     3
 2 Acacias                  4158    61
 3 Adelfas                  2268    33
 4 Aeropuerto                 76     2
 5 Aguilas                   109     2
 6 Alameda de Osuna          555     4
 7 Almagro                 10591    97
 8 Almenara                 1642    25
 9 Almendrales              1395    18
10 Aluche                    503     9
# ℹ 109 more rows

barrio_precmedio_nentradas <- airbnb_entire |> group_by(Barrio) |>  summarize(Precio_medio = round(mean(Precio), 2), freq = n()) |> select(Barrio, Precio_medio, freq)
barrio_precmedio_nentradas

# A tibble: 119 × 3
   Barrio           Precio_medio  freq
   <fct>                   <dbl> <int>
 1 Abrantes                 46       3
 2 Acacias                  68.2    61
 3 Adelfas                  68.7    33
 4 Aeropuerto               38       2
 5 Aguilas                  54.5     2
 6 Alameda de Osuna        139.      4
 7 Almagro                 109.     97
 8 Almenara                 65.7    25
 9 Almendrales              77.5    18
10 Aluche                   55.9     9
# ℹ 109 more rows
…
